%YAML 1.1
%TAG !u! tag:unity3d.com,2011:
--- !u!114 &11400000
MonoBehaviour:
  m_ObjectHideFlags: 0
  m_CorrespondingSourceObject: {fileID: 0}
  m_PrefabInstance: {fileID: 0}
  m_PrefabAsset: {fileID: 0}
  m_GameObject: {fileID: 0}
  m_Enabled: 1
  m_EditorHideFlags: 0
  m_Script: {fileID: 11500000, guid: d9b34c05e9e02cd489223e57d1fa5844, type: 3}
  m_Name: TestSceneLoadData
  m_EditorClassIdentifier: 
  _sceneLoaderIndex: 1
  _menuSceneElementNumber: 2
  _firstSceneElementNumber: 2
  _scenesList:
  - SceneIndex: 2
    NextSceneIndex: 3
    WallPaperImage: {fileID: 21300000, guid: 850ad9651027c1e47a48a08251a26518, type: 3}
  - SceneIndex: 3
    NextSceneIndex: 2
    WallPaperImage: {fileID: 21300000, guid: 2fad29b769424554592f131646676db4, type: 3}
  - SceneIndex: 4
    NextSceneIndex: 2
    WallPaperImage: {fileID: 21300000, guid: d3b3618f584a3314fb8bd57e0c5969ae, type: 3}
