%YAML 1.1
%TAG !u! tag:unity3d.com,2011:
--- !u!114 &11400000
MonoBehaviour:
  m_ObjectHideFlags: 0
  m_CorrespondingSourceObject: {fileID: 0}
  m_PrefabInstance: {fileID: 0}
  m_PrefabAsset: {fileID: 0}
  m_GameObject: {fileID: 0}
  m_Enabled: 1
  m_EditorHideFlags: 0
  m_Script: {fileID: 11500000, guid: f5366a7077813d34199f3107504b458b, type: 3}
  m_Name: BonusEffectVar3
  m_EditorClassIdentifier: 
  Sprite: {fileID: 21300000, guid: c98f21b59f28f8e47b9f26ed40fae2ab, type: 3}
  _healthPoints: 60
  _description: "\u0411\u043E\u043D\u0443\u0441 \u043A \u043C\u0430\u043A\u0441\u0438\u043C\u0430\u043B\u044C\u043D\u043E\u043C\u0443
    \u0437\u0434\u043E\u0440\u043E\u0432\u044C\u044E"
