%YAML 1.1
%TAG !u! tag:unity3d.com,2011:
--- !u!114 &11400000
MonoBehaviour:
  m_ObjectHideFlags: 0
  m_CorrespondingSourceObject: {fileID: 0}
  m_PrefabInstance: {fileID: 0}
  m_PrefabAsset: {fileID: 0}
  m_GameObject: {fileID: 0}
  m_Enabled: 1
  m_EditorHideFlags: 0
  m_Script: {fileID: 11500000, guid: caa89d07daf5b974c9cc62e214bae2be, type: 3}
  m_Name: EffectSystemData
  m_EditorClassIdentifier: 
  levelUpEffect: {fileID: 4141808836952207289, guid: 345ec5a4ad6f03a4a9de20605b0d627a, type: 3}
