%YAML 1.1
%TAG !u! tag:unity3d.com,2011:
--- !u!114 &11400000
MonoBehaviour:
  m_ObjectHideFlags: 0
  m_CorrespondingSourceObject: {fileID: 0}
  m_PrefabInstance: {fileID: 0}
  m_PrefabAsset: {fileID: 0}
  m_GameObject: {fileID: 0}
  m_Enabled: 1
  m_EditorHideFlags: 0
  m_Script: {fileID: 11500000, guid: 79d6310d616c48ae84b22923a50782e2, type: 3}
  m_Name: EnemiesData
  m_EditorClassIdentifier: 
  enemies:
  - name: Simple
    enemyPrefab: {fileID: 4207500843180061113, guid: 1a9d7d9d1f5769d44bbbdf4fa0f37a12, type: 3}
    speed: 0.7
    attackSpeed: 8
    container: {fileID: 11400000, guid: 97f05deb64b46154b9ec48404c893a5b, type: 2}
    expCountOnDeath: 10
    health: 100
    aimTimerView: {fileID: 1594820174054656190, guid: 23153dc68253393048ccbb769c9fc396, type: 3}
    healthBarView: {fileID: 4116124281983652298, guid: af7349d2bdb8be5d99ea8f8d6c6627f3, type: 3}
    dmg: 10
    attackCoooldown: 2
    _trophy: {fileID: 11400000, guid: b83f692284dbac3409d7b6c3d6596510, type: 2}
  timeFromSpawn: 3
  timeToSpawn: 10
