%YAML 1.1
%TAG !u! tag:unity3d.com,2011:
--- !u!114 &11400000
MonoBehaviour:
  m_ObjectHideFlags: 0
  m_CorrespondingSourceObject: {fileID: 0}
  m_PrefabInstance: {fileID: 0}
  m_PrefabAsset: {fileID: 0}
  m_GameObject: {fileID: 0}
  m_Enabled: 1
  m_EditorHideFlags: 0
  m_Script: {fileID: 11500000, guid: 29c5c6af9ba24a0d996da501b9614640, type: 3}
  m_Name: PlayerData
  m_EditorClassIdentifier: 
  prefab: {fileID: 5785591440999006600, guid: af8f63a26e6fa57408aa24650951e424, type: 3}
  healthBarView: {fileID: 4116124281983652298, guid: af7349d2bdb8be5d99ea8f8d6c6627f3, type: 3}
  reloadBarView: {fileID: 4861263884792312465, guid: bddedbff49c67f294972d5aa48afe03d, type: 3}
  _weapon: {fileID: 11400000, guid: 217514a817619523c855b4a15929540a, type: 2}
  weaponMelee: {fileID: 11400000, guid: 47a17335c6a25c44f888ef5785c08eb0, type: 2}
  speed: 13
  health: 100
  accuracy: 0
  critChance: 0
  critPower: 0
  ammunition: 0
  additionalExperience: 0
  reloadSpeed: 0
  healingGain: 0
  dodgeChance: 0
  healthRegeneration: 0
  armor: 0
  targetCaptureSpeed: 0
  expNeedForOneCoin: 1
