%YAML 1.1
%TAG !u! tag:unity3d.com,2011:
--- !u!114 &11400000
MonoBehaviour:
  m_ObjectHideFlags: 0
  m_CorrespondingSourceObject: {fileID: 0}
  m_PrefabInstance: {fileID: 0}
  m_PrefabAsset: {fileID: 0}
  m_GameObject: {fileID: 0}
  m_Enabled: 1
  m_EditorHideFlags: 0
  m_Script: {fileID: 11500000, guid: 1bf7daa0d53e4ef1a9f0b94e1729d0a6, type: 3}
  m_Name: CoinsData
  m_EditorClassIdentifier: 
  _name: "\u0416\u0435\u0442\u043E\u043D"
  _icon: {fileID: 0}
