%YAML 1.1
%TAG !u! tag:unity3d.com,2011:
--- !u!114 &11400000
MonoBehaviour:
  m_ObjectHideFlags: 0
  m_CorrespondingSourceObject: {fileID: 0}
  m_PrefabInstance: {fileID: 0}
  m_PrefabAsset: {fileID: 0}
  m_GameObject: {fileID: 0}
  m_Enabled: 1
  m_EditorHideFlags: 0
  m_Script: {fileID: 11500000, guid: dd2f0cd2738c450f97bb09d448ff7279, type: 3}
  m_Name: SimpleWeapon
  m_EditorClassIdentifier: 
  dmg: 10
  _weaponView: {fileID: 7196449734608061122, guid: 282681aee3eab56f0b32a94ee7b8e946, type: 3}
  bulletSpeed: 0.2
  aimTime: 1
  shotFrequency: 0.1
  aimDistance: 10
  throughCount: 0
  misfireChance: 0.1
  clipCount: 30
  amoCount: 9999
  reloadTime: 6
